"Marca temporal","Nombre de usuario","Sexo","Edad","¿Ha quedado claro el enunciado anterior?","Qué tipo de estampados usa comunmente","Con qué enunciado te identificas más","¿Cuánto pagas en promedio por una playera?","El estampado","La marca","La tela","La calidad","El precio","La nacionalidad de la marca","La originalidad","La experiencia de compra","En qué rango de precio se encuentra tu más reciente compra","Cuál fue el factor que te llamo mas la atención de la playera","Cuál fue el factor más importante para comprar la playera","Cuál fue el segundo factor más importante para comprar la playera","Ha comprado playeras por internet anteriormente","Estaría dispuesto a comprar en un futuro playeras por internet","","","","","","","","","¿Qué marca de playera usa usualmente y por qué?","¿Qué marca de origen mexicano conoce?","Te gustaria ser parte de un selecto grupo para probar un nuevo concepto de playeras exclusivas","De acuerdo, u otro correo","De acuerdo"
"2019/07/16 6:40:23 p. m. GMT-5","choy_jch@hotmail.com","Hombre","26 - 30","Sí","Nombre o logo de la marca","Compro al menos una playera cada 3-6 meses","750","3","5","4","5","1","1","5","5","más de 1000","Marca","Marca","La tela","No","Tal vez","Benetton","Penguin","Lacoste","","Nautica","","","","Hugo boss - CK diseños originales y tela cómoda ","N/A","Sí","De acuerdo",""
"2019/07/16 6:42:56 p. m. GMT-5","act.d.arias@hotmail.com","Hombre","26 - 30","Sí","Nombre o logo de la marca","Compro al menos una playera cada 3-6 meses","350","5","5","5","5","5","1","1","5","200 - 350","Calidad","Calidad","La tela","No","Sí","","","Lacoste","","Nautica","","","","Weekend","Ninguna","No","",""
"2019/07/16 6:45:04 p. m. GMT-5","tamias1000@gmail.com","Hombre","más de 35","Sí","Personajes de ficción o de moda","Compro al menos una playera cada 2 meses","450","4","1","4","4","3","1","4","4","351 - 450","Lo que tenía estampado","El estampado","La tela","Sí","Sí","Benetton","","Lacoste","","Nautica","","","","Sin marca","No me fijo en eso","Sí","De acuerdo",""
"2019/07/16 7:17:47 p. m. GMT-5","ferrari_plack@msn.com","Hombre","26 - 30","Sí","","No compro playeras","","","","","","","","","","","","","","","","","","","","","","","","","","","",""
"2019/07/16 7:23:40 p. m. GMT-5","luisarturoestrella33@gmail.com","Hombre","más de 35","Sí","Deportes","Compro al menos una playera cada 2 meses","550","4","3","5","4","4","3","4","4","200 - 350","Lo que tenía estampado","El estampado","La tela","No","Tal vez","","","Lacoste","","","","","","Adidas o deportivas","No recuerdo","Sí","De acuerdo",""
"2019/07/16 7:57:10 p. m. GMT-5","mrgtz05@gmail.com","Mujer","21 - 25","Sí","","No compro playeras","","","","","","","","","","","","","","","","","","","","","","","","","","","",""
"2019/07/16 7:58:09 p. m. GMT-5","ricardoguti180@gmail.com","Hombre","21 - 25","Sí","Leyendas o frases","Compro al menos una playera cada 2 meses","250","","","","","","","","","","","","","","","","","","","","","","","","","","",""
"2019/07/16 7:59:14 p. m. GMT-5","bthierry94@hotmail.com","Mujer","21 - 25","Sí","","No compro playeras","","","","","","","","","","","","","","","","","","","","","","","","","","","",""
"2019/07/16 8:02:21 p. m. GMT-5","pam08_srm@hotmail.com","Mujer","21 - 25","Sí","Arbolitos, animalitos, etc ","Compro al menos una playera cada 3-6 meses","450","5","1","5","5","5","1","5","5","351 - 450","Lo que tenía estampado","El estampado","La tela","No","Tal vez","","","Lacoste ","","Nautica ","","","","Vans por la comodidad, son muy amplias y con tela suave.","Ay guey ","Sí","De acuerdo",""
"2019/07/16 8:03:22 p. m. GMT-5","s.solano.p@hotmail.com","Mujer","21 - 25","Sí","Pop culture ","Compro al menos una playera cada 3-6 meses","450","5","3","4","4","4","1","3","3","451 - 550","La tela","El estampado","La tela","Sí","Sí","Benetton","Penguin","Lacoste ","","Náutica ","R algo ","","Máscara de látex ","Uniqlo, por calidad y estampados ","¡Ay güey! Y unas de bamboo","Sí","De acuerdo",""
"2019/07/16 8:07:00 p. m. GMT-5","alitzel_sa@hotmail.com","Mujer","21 - 25","Sí","Personajes de ficción o de moda;Nombre o logo de la marca","Compro al menos una playera cada mes","850","1","2","4","5","5","3","5","4","851 - 1000","Calidad","Calidad","La tela","No","Sí","Benneton","Pingüin","Lacoste ","","Nautica","","","","Zara, Stradivariu","Julio","Sí","De acuerdo",""
"2019/07/16 8:18:24 p. m. GMT-5","seb.chovi@gmail.com","Hombre","21 - 25","Sí","Motivos graciosos;Leyendas o frases;Personajes de ficción o de moda","Compro al menos una playera cada 2 meses","350","5","3","4","5","4","1","3","1","200 - 350","Precio","Calidad","La tela","Sí","Sí","","Penguin","Lacoste","","","","","","Hot Topic, por el diseño ","Ay Wey!","Sí","De acuerdo",""
"2019/07/16 8:20:42 p. m. GMT-5","jpviverosm@hotmail.com","Hombre","26 - 30","Sí","Leyendas o frases;Nombre o logo de la marca","Compro al menos una playera cada 3-6 meses","350","3","5","5","5","5","1","1","5","351 - 450","Calidad","Calidad","La tela","No","Tal vez","Benetton ","","Lacoste","","Náutica ","","","","Polo","NA","No","",""
"2019/07/16 8:34:27 p. m. GMT-5","fersolpal@gmail.com","Mujer","26 - 30","Sí","Motivos graciosos;Patrones","Compro al menos una playera cada 2 meses","350","5","3","4","5","3","2","5","3","200 - 350","La tela","Precio","El estampado","No","Tal vez","United colors of Benetton ","Penguin ","Lacoste ","Máscara de látex ","Náutica ","","","Máscara de látex ","H&M u Old Navy, por precio y diseño","Ay güey, Mascara de Látex, ","Sí","De acuerdo",""
"2019/07/16 8:36:34 p. m. GMT-5","fabialiseda@gmail.con","Mujer","26 - 30","Sí","Motivos graciosos;Leyendas o frases;Personajes de ficción o de moda;Nombre o logo de la marca","Compro al menos una playera cada 2 meses","250","","","","","","","","","","","","","","","","","","","","","","","","","","",""
"2019/07/16 10:52:14 p. m. GMT-5","daniela_co1@hotmail.com","Mujer","26 - 30","Sí","Flores o paisajes","Compro al menos una playera cada 3-6 meses","350","5","2","4","4","5","1","5","5","200 - 350","Lo que tenía estampado","El estampado","Precio","No","No","","Pinguin ","Lacoste","","","","","Batman ","H&M","Ay wei","Sí","De acuerdo",""
"2019/07/16 10:58:12 p. m. GMT-5","pgrande.93@gmail.com","Mujer","21 - 25","Sí","Leyendas o frases","Compro al menos una playera cada 2 meses","750","4","4","5","5","4","4","5","4","751 - 850","Lo que tenía estampado","La tela","Calidad","No","Tal vez","United Colors Of Benetton","Pengüin","Lacoste","","Naútica","Banana Republic","","","Massimo Dutti. Me agradan sus diseños, considero que son muy originales y la calidad de la playera es fresca, adicional a qué se ve casual y no tan informal. ","Ninguno","Sí","De acuerdo",""
"2019/07/16 11:21:40 p. m. GMT-5","wai.mjc@gmail.com","Mujer","21 - 25","Sí","Personajes de ficción o de moda","Compro al menos una playera cada 3-6 meses","450","5","2","5","5","4","2","5","4","451 - 550","Lo que tenía estampado","Calidad","El estampado","No","Tal vez","Benetton ","","Lacoste","","Nautica","","","","N/A","Ay guey ","No","",""
"2019/07/17 12:14:42 p. m. GMT-5","antonio.rova@hotmail.com","Hombre","26 - 30","Sí","Personajes de ficción o de moda","Compro al menos una playera cada mes","250","","","","","","","","","","","","","","","","","","","","","","","","","","",""
"2019/07/17 12:19:05 p. m. GMT-5","raxamartinez@hotmail.com","Hombre","31 - 35","Sí","","No compro playeras","","","","","","","","","","","","","","","","","","","","","","","","","","","",""
"2019/07/17 1:50:28 p. m. GMT-5","aleh.villegas@gmail.com","Mujer","26 - 30","No","Nombre o logo de la marca","Compro al menos una playera cada 3-6 meses","250","","","","","","","","","","","","","","","","","","","","","","","","","","","OK"
"2019/07/17 1:51:09 p. m. GMT-5","dann.rosva@gmail.com","Mujer","31 - 35","Sí","Motivos graciosos;Leyendas o frases","Compro al menos una playera cada 15 días","250","","","","","","","","","","","","","","","","","","","","","","","","","","",""
"2019/07/17 1:51:13 p. m. GMT-5","oaduranme@gmail.com","Hombre","más de 35","Sí","Leyendas o frases;bandas de rock","Compro al menos una playera cada mes","250","","","","","","","","","","","","","","","","","","","","","","","","","","",""
"2019/07/17 1:51:23 p. m. GMT-5","saint45@gmail.com","Hombre","31 - 35","No","Motivos graciosos;Leyendas o frases;Personajes de ficción o de moda;Nombre o logo de la marca","Compro al menos una playera cada 3-6 meses","250","","","","","","","","","","","","","","","","","","","","","","","","","","","OK"
"2019/07/17 1:51:56 p. m. GMT-5","thirazaba@hotmail.com","Mujer","más de 35","Sí","Personajes de ficción o de moda","Compro al menos una playera cada 3-6 meses","250","","","","","","","","","","","","","","","","","","","","","","","","","","",""
"2019/07/17 1:54:57 p. m. GMT-5","aida_rosas2008@hotmail.com","Mujer","más de 35","Sí","Nombre o logo de la marca","Compro al menos una playera cada 3-6 meses","550","2","3","5","5","2","3","5","4","451 - 550","Calidad","Calidad","El estampado","No","Tal vez","","","Lacost","","Nautica","","","","Tony me gustan ","No conozco ","Sí","De acuerdo",""
"2019/07/17 1:55:18 p. m. GMT-5","carlos.bello83@gmail.com","Hombre","18 - 20","Sí","Nombre o logo de la marca","Compro al menos una playera cada 3-6 meses","Más de 1000","1","1","5","5","5","5","5","3","más de 1000","Precio","El estampado","Precio","No","No","","","Lacoste","","Nautica ","","","","Nike ","Ay güey","No","",""
"2019/07/17 1:56:04 p. m. GMT-5","izaf.rodriguez@gmail.com","Mujer","21 - 25","Sí","Personajes de ficción o de moda","Compro al menos una playera cada 3-6 meses","350","5","5","5","5","4","3","5","3","351 - 450","Lo que tenía estampado","El estampado","Calidad","Sí","Sí","Benetton","Penguin","Lacoste","","Nautica","","","Máscara de látex","Máscara de látex/ H&M/ Forever 21 porque son marcas disponibles en las plazas comerciales ","Máscara de látex","Sí","De acuerdo",""
"2019/07/17 1:59:24 p. m. GMT-5","m.reyes.mkt@gmail.com","Mujer","26 - 30","Sí","Motivos graciosos;Leyendas o frases;Personajes de ficción o de moda","Compro al menos una playera cada 2 meses","250","","","","","","","","","","","","","","","","","","","","","","","","","","",""
"2019/07/17 1:59:47 p. m. GMT-5","sebastian.morelos22@gmail.com","Hombre","26 - 30","Sí","Personajes de ficción o de moda","Compro al menos una playera cada 3-6 meses","350","5","1","5","5","3","1","1","1","351 - 450","Lo que tenía estampado","El estampado","Calidad","Sí","Sí","","","LaCoste","","","","","","Manga corta, con estampados de personajes ficticios","Desconozco","Sí","De acuerdo",""
"2019/07/17 2:01:49 p. m. GMT-5","sergio_veca@hotmail.com","Hombre","26 - 30","Sí","Leyendas o frases","Compro al menos una playera cada 2 meses","450","2","3","4","4","4","1","4","5","451 - 550","Calidad","Calidad","La tela","No","Sí","","Original Penguin","Lacoste","","Nautica","","","","H&M","Acapella","Sí","De acuerdo",""
"2019/07/17 2:04:41 p. m. GMT-5","march602@gmail.com","Hombre","más de 35","Sí","Nombre o logo de la marca","Compro al menos una playera cada 2 meses","550","5","5","5","5","4","1","5","5","751 - 850","Lo que tenía estampado","El estampado","Precio","Sí","Sí","","","La cost","","Nautica","","","","Adidas, aunque los cuellos son ultimamente altos","Ninguna","Sí","De acuerdo",""
"2019/07/17 2:04:52 p. m. GMT-5","march602@gmail.com","Hombre","más de 35","Sí","Nombre o logo de la marca","Compro al menos una playera cada 2 meses","550","5","5","5","5","4","1","5","5","751 - 850","Lo que tenía estampado","El estampado","Precio","Sí","Sí","","","La cost","","Nautica","","","","Adidas, aunque los cuellos son ultimamente altos","Ninguna","Sí","De acuerdo",""
"2019/07/17 2:17:17 p. m. GMT-5","villegassisrael@gmail.com","Hombre","26 - 30","Sí","Nombre o logo de la marca","Compro al menos una playera cada 3-6 meses","350","5","4","1","5","4","1","5","5","351 - 450","Lo que tenía estampado","El estampado","Marca","No","Sí","Benetton ","Penguin","Lacoste","","Nautica ","","","Máscara de Látex ","c&a, ck, por. Gusto ","Máscara de látex, cuidado con el perro, ","Sí","De acuerdo",""
"2019/07/17 2:28:52 p. m. GMT-5","daniisper@gmail.com","Mujer","26 - 30","Sí","","No compro playeras","","","","","","","","","","","","","","","","","","","","","","","","","","","",""
"2019/07/17 2:37:50 p. m. GMT-5","paog_tcc@hotmail.com","Mujer","26 - 30","Sí","Leyendas o frases;Nombre o logo de la marca","Compro al menos una playera cada mes","250","","","","","","","","","","","","","","","","","","","","","","","","","","",""
"2019/07/17 2:48:57 p. m. GMT-5","gdavila.sony@gmail.com","Hombre","31 - 35","Sí","Leyendas o frases","Compro al menos una playera cada 3-6 meses","550","2","2","5","4","3","3","4","5","351 - 450","Lo que tenía estampado","El estampado","Precio","No","Tal vez","","","Lacoste","","Nautica","","","","Aeropostal","Next","Sí","De acuerdo",""
"2019/07/17 3:12:30 p. m. GMT-5","raleca50@hotmail.com","Hombre","más de 35","No","","No compro playeras","","","","","","","","","","","","","","","","","","","","","","","","","","","","OK"
"2019/07/17 3:15:49 p. m. GMT-5","maffcc@hotmail.com","Mujer","21 - 25","Sí","Leyendas o frases","Compro al menos una playera cada 15 días","450","5","3","5","5","5","1","5","5","451 - 550","Calidad","Calidad","El estampado","No","Sí","Benetton","Penguin","Lacoste ","","Náutica ","","","","Tommy, por la calidad y los estampados. ","Ninguna ","Sí","De acuerdo",""
"2019/07/17 3:21:02 p. m. GMT-5","sergio.martinez0086@gmail.com","Hombre","31 - 35","Sí","Motivos graciosos;Leyendas o frases;Personajes de ficción o de moda","Compro al menos una playera cada 2 meses","250","","","","","","","","","","","","","","","","","","","","","","","","","","",""
"2019/07/17 3:29:49 p. m. GMT-5","adm.maldonado@hotmail.com","Hombre","21 - 25","Sí","Nombre o logo de la marca","Compro al menos una playera cada 3-6 meses","250","","","","","","","","","","","","","","","","","","","","","","","","","","",""
"2019/07/17 4:04:26 p. m. GMT-5","villegassisrael@gmail.com","Hombre","26 - 30","Sí","Nombre o logo de la marca","Compro al menos una playera cada 3-6 meses","350","5","4","1","5","4","1","5","5","351 - 450","Lo que tenía estampado","El estampado","Marca","No","Sí","Benetton ","Penguin","Lacoste","","Nautica ","","","Máscara de Látex ","c&a, ck, por. Gusto ","Máscara de látex, cuidado con el perro, ","Sí","De acuerdo",""
"2019/07/17 5:37:30 p. m. GMT-5","Irazaba6809@hotmail.com","Hombre","más de 35","Sí","Nombre o logo de la marca","Compro al menos una playera cada 3-6 meses","350","5","3","5","5","5","1","5","5","351 - 450","Calidad","Calidad","La tela","No","Tal vez","","","","","","","","","Lacoste","No","No","",""
"2019/07/17 8:35:28 p. m. GMT-5","lorena.ramirez.mata@gmail.com","Mujer","31 - 35","Sí","Nombre o logo de la marca","Compro al menos una playera cada 3-6 meses","650","1","5","3","5","5","1","5","5","651 - 750","Marca","Marca","Precio","Sí","Sí","Benetton ","Penguin ","Lacoste",""," Nautica","","","Máscara de latex ","Calvin Clain por que es mi marca favorita ","Chap chan, mascaca de látex ","Sí","De acuerdo",""
"2019/07/18 4:08:25 p. m. GMT-5","fersolpal@gmail.com","Mujer","26 - 30","Sí","Motivos graciosos;Patrones","Compro al menos una playera cada 2 meses","350","5","3","4","5","3","2","5","3","200 - 350","La tela","Precio","El estampado","No","Tal vez","United colors of Benetton ","Penguin ","Lacoste ","Máscara de látex ","Náutica ","","","Máscara de látex ","H&M u Old Navy, por precio y diseño","Ay güey, Mascara de Látex, ","Sí","De acuerdo",""
"2019/07/19 8:09:14 a. m. GMT-5","alee.ap94@hotmail.com","Mujer","21 - 25","Sí","","No compro playeras","","","","","","","","","","","","","","","","","","","","","","","","","","","",""
"2019/07/28 8:58:14 p. m. GMT-5","kacvid01@hotmail.com","Hombre","más de 35","Sí","Personajes de ficción o de moda","Compro al menos una playera cada mes","350","4","3","4","3","3","3","5","4","351 - 450","Lo que tenía estampado","El estampado","Precio","Sí","Tal vez","Benetton","Penguin","Lacoste","","Náutica","","","","No tengo una es específico","Ay güey","No","",""
"2019/07/28 9:05:16 p. m. GMT-5","lilitruby@gmail.com","Mujer","más de 35","Sí","Leyendas o frases;Personajes de ficción o de moda;Nombre o logo de la marca","Compro al menos una playera cada 2 meses","850","5","3","5","5","3","1","5","4","más de 1000","Calidad","Calidad","El estampado","No","Tal vez","","","","","","","","","Varias","No conozco ","Sí","De acuerdo",""
"2019/07/28 9:12:36 p. m. GMT-5","anais_sn@hotmail.com","Mujer","31 - 35","No","Leyendas o frases","Compro al menos una playera cada 3-6 meses","250","","","","","","","","","","","","","","","","","","","","","","","","","","","OK"
"2019/07/28 9:36:26 p. m. GMT-5","fsanchezz101222@gmail.com","Hombre","31 - 35","Sí","Nombre o logo de la marca","Compro al menos una playera cada mes","250","","","","","","","","","","","","","","","","","","","","","","","","","","",""
"2019/07/28 9:37:09 p. m. GMT-5","jaimestheirish@gmail.com","Hombre","26 - 30","Sí","Personajes de ficción o de moda","Compro al menos una playera cada 15 días","250","","","","","","","","","","","","","","","","","","","","","","","","","","",""
"2019/07/29 8:40:58 a. m. GMT-5","javsdx@hotmail.com","Hombre","26 - 30","Sí","Nombre o logo de la marca","Compro al menos una playera cada 3-6 meses","250","","","","","","","","","","","","","","","","","","","","","","","","","","",""
"2019/07/29 9:58:19 a. m. GMT-5","mvidalesbello@hotmail.com","Mujer","más de 35","Sí","Personajes de ficción o de moda","Compro al menos una playera cada 2 meses","350","3","3","4","4","3","3","3","3","200 - 350","Lo que tenía estampado","El estampado","Calidad","No","Sí","","","Lacoste","","","","","","No me fijo tanto en la marca si no en la calidad de la tela
","papaya ay guey lili james","Sí","De acuerdo",""
"2019/07/29 10:13:54 a. m. GMT-5","fersantamaria.83@gmail.com","Hombre","31 - 35","Sí","Nombre o logo de la marca","Compro al menos una playera cada 3-6 meses","350","5","4","5","5","4","3","4","3","351 - 450","Calidad","La tela","El estampado","No","Tal vez","","Penguin","Lacoste ","Psycho Bunny","Nautica ","","","","Under Armour","Ay Guey","Sí","De acuerdo",""
"2019/07/29 12:46:37 p. m. GMT-5","gaby.cobian@hotmail.com","Mujer","más de 35","Sí","","No compro playeras","","","","","","","","","","","","","","","","","","","","","","","","","","","",""
"2019/07/29 1:21:56 p. m. GMT-5","ctrubyru@hotmail.com","Hombre","más de 35","Sí","","No compro playeras","","","","","","","","","","","","","","","","","","","","","","","","","","","",""
"2019/07/29 2:42:46 p. m. GMT-5","javier_silva_h@hotmail.com","Hombre","más de 35","Sí","Leyendas o frases","Compro al menos una playera cada 3-6 meses","250","","","","","","","","","","","","","","","","","","","","","","","","","","",""
"2019/07/29 3:54:59 p. m. GMT-5","liz_bac@hotmail.com","Mujer","31 - 35","Sí","","No compro playeras","","","","","","","","","","","","","","","","","","","","","","","","","","","",""
"2019/07/29 10:20:35 p. m. GMT-5","karlori77@gmail.com","Mujer","más de 35","Sí","Personajes de ficción o de moda;Nombre o logo de la marca","Compro al menos una playera cada 3-6 meses","350","5","3","5","5","3","3","5","4","351 - 450","Lo que tenía estampado","El estampado","Calidad","No","Tal vez","Benetton","Pinguin","Lacoste","","Nautica","","No recuerdo","","Zara por la tela y su calidad","No","Sí","De acuerdo",""
"2019/07/30 3:37:45 p. m. GMT-5","amauries@hotmail.com","Mujer","más de 35","Sí","Diseños originales. Cualquier tema ","Compro al menos una playera cada 3-6 meses","250","","","","","","","","","","","","","","","","","","","","","","","","","","",""
"2019/07/30 8:00:11 p. m. GMT-5","aimauries@gmail.com","Mujer","más de 35","Sí","Leyendas o frases","Compro al menos una playera cada 3-6 meses","250","","","","","","","","","","","","","","","","","","","","","","","","","","",""